{
  City: 'Stadt',
  PostCode: 'PLZ',
  Features: 'Eigenschaften',
  Address: 'Adresse',
  Coordinates: 'Koordinaten',
  Prices: 'Preise',
  Monday: 'Montag',
  Tuesday: 'Dienstag',
  Wednesday: 'Mittwoch',
  Thursday: 'Donnerstag',
  Friday: 'Freitag',
  Saturday: 'Samstag',
  Sunday: 'Sonntag'
}
